{
    "settings": {
        "number_of_shards": 2,
        "number_of_replicas": 1
    },
    "mappings": {
        "properties": {
            "category": {
                "type": "keyword"
            },
            "timestamp": {
                "type": "date",
                "format": "yyyy-MM-dd HH:mm:ss"
            },
            "url": {
                "type": "keyword"
            },
            "merged": {
                "type": "keyword"
            },
            "state": {
                "type": "keyword"
            },
            "created_at": {
                "type": "date",
                "format": "yyyy-MM-dd HH:mm:ss"
            },
            "closed_at": {
                "type": "date",
                "format": "yyyy-MM-dd HH:mm:ss"
            },
            "merged_at": {
                "type": "date",
                "format": "yyyy-MM-dd HH:mm:ss"
            },
            "repo": {
                "type": "keyword"
            },
            "third-party-dev": {
                "type": "boolean"
            },
            "user": {
                "type": "keyword"
            },
            "association": {
                "type": "boolean"
            },
            "author_association": {
                "type": "keyword"
            },
            "login": {
                "type": "keyword"
            },
            "id": {
                "type": "keyword"
            },
            "avatar_url": {
                "type": "keyword"
            },
            "author_url": {
                "type": "keyword"
            },
            "html_url": {
                "type": "keyword"
            },
            "organizations_url": {
                "type": "keyword"
            },
            "repos_url": {
                "type": "keyword"
            },
            "events_url": {
                "type": "keyword"
            },
            "type": {
                "type": "keyword"
            },
            "site_admin": {
                "type": "boolean"
            },
            "name": {
                "type": "keyword"
            },
            "company": {
                "type": "keyword"
            },
            "location": {
                "type": "keyword"
            },
            "email": {
                "type": "keyword"
            },
            "organizations": {
                "type": "keyword"
            }
        }
    }
}    